<svg viewBox="-2 -2 204 204" xmlns="http://www.w3.org/2000/svg">
  <style type="text/css">
    circle {
      fill: none;
      stroke: #000;
      stroke-width: 12;
    }
    path {
      fill: none;
      stroke: #000;
      stroke-width: 20;
    }
    .orange {
      stroke: #ff5500;
    }
    .red {
      stroke: #cc0000;
    }
  </style>
  <g>
    <path d="M60 170 v-100 a50 50 0 0 1 50-50 h20" class="orange"/>
    <path d="M60 170 v-35 a50 50 0 0 1 50-50 h20" class="red" />
    <circle cx="140" cy="20" r="15" class="orange" />
    <circle cx="140" cy="85" r="15" class="red" />
    <circle cx="60" cy="180" r="15" class="red" />
  </g>
</svg>
